{
    "version": 3,
    "cmakeMinimumRequired": {
        "major": 3,
        "minor": 22,
        "patch": 1
    },
    "configurePresets": [
        {
            "name": "default",
            "hidden": true,
            "displayName": "Webassembly",
            "generator": "Ninja",
            "description": "Default build for Webassembly",
            "binaryDir": "build/${presetName}",
            "toolchainFile": "~/libraries/emsdk/upstream/emscripten/cmake/Modules/Platform/Emscripten.cmake"
        },
        {
            "name": "webassembly-release",
            "inherits": "default",
            "cacheVariables": {
                "CMAKE_BUILD_TYPE": "Release"
            }
        },
        {
            "name": "webassembly-debug",
            "inherits": "default",
            "displayName": "Webassembly Debug",
            "description": "Debug build for Webassembly",
            "cacheVariables": {
                "CMAKE_BUILD_TYPE": "Debug"
            }
        }
    ],
    "buildPresets": [
        {
            "name": "webassembly-release",
            "jobs": 16,
            "configurePreset": "webassembly-release"
        },
        {
            "name": "webassembly-debug",
            "jobs": 16,
            "configurePreset": "webassembly-debug"
        }
    ],
    "testPresets": []
}